Compare arms
…
Per-gene Fisher tests between arms (PD variants):

per_gene_tests |>
    mutate(total_mut = n_mut_A + n_mut_B) |>
    filter(total_mut > 4) |>
    pull(genename)

## [1] "ESR1"   "KMT2A"  "PIK3CA" "GATA3"  "LRP1B"  "TP53"

per_gene_tests |> arrange(desc(n_mut_B))

## # A tibble: 186 × 10
##    genename p_value odds_ratio conf_low conf_high n_mut_A n_not_mut_A n_mut_B
##    <chr>      <dbl>      <dbl>    <dbl>     <dbl>   <int>       <dbl>   <int>
##  1 ESR1      0.0233     0.0902  0.00182     0.813      11          10      13
##  2 PIK3CA    0.0858     0.257   0.0430      1.28        8          13      10
##  3 TP53      1          0.903   0.177       4.82        7          14       5
##  4 FAT1      0.279      0.193   0.00334     2.73        1          20       3
##  5 GATA3     0.369      0.397   0.0289      4.03        2          19       3
##  6 APC       0.153      0       0           3.47        0          21       2
##  7 CSF1R     0.153      0       0           3.47        0          21       2
##  8 GATA2     0.153      0       0           3.47        0          21       2
##  9 MCL1      0.153      0       0           3.47        0          21       2
## 10 NOTCH4    0.153      0       0           3.47        0          21       2
## # ℹ 176 more rows
## # ℹ 2 more variables: n_not_mut_B <dbl>, p_adj <dbl>
…
