Mutational signatures
…
ggsave("results/figures/mutational_signatures_contributions_relative.pdf", plot = last_plot(), width = 9, height = 5)

fit_res$contribution |>
    as.data.frame() |>
    tibble::rownames_to_column("signature") |>
    tidyr::pivot_longer(-signature, names_to = "sample", values_to = "contribution") |>
    group_by(sample) |>
    mutate(relative_contribution = contribution / sum(contribution)) |>
    ungroup() |>
    filter(contribution > 0) |>
    arrange(sample, desc(relative_contribution))

## # A tibble: 69 × 4
##    signature sample   contribution relative_contribution
##    <chr>     <chr>           <dbl>                 <dbl>
##  1 SBS88     340 (BL)        5.01                 0.197 
##  2 SBS12     340 (BL)        4.21                 0.166 
##  3 SBS14     340 (BL)        3.53                 0.139 
##  4 SBS20     340 (BL)        2.47                 0.0973
##  5 SBS39     340 (BL)        2.44                 0.0962
##  6 SBS32     340 (BL)        1.93                 0.0762
##  7 SBS22     340 (BL)        1.25                 0.0493
##  8 SBS33     340 (BL)        1.19                 0.0470
##  9 SBS17a    340 (BL)        1.09                 0.0430
## 10 SBS1      340 (BL)        0.883                0.0348
## # ℹ 59 more rows
